Life Expectancy Comparison
…
(dt <- life_expec %>% 
  filter(year == "2000-2005") %>% 
  rename(country = country_or_area, gender = subgroup, life_expectancy = value) %>% 
  select(country, gender, life_expectancy) %>% 
  pivot_wider(names_from = gender, values_from = life_expectancy)   
)

## # A tibble: 195 x 3
##    country     Female  Male
##    <chr>        <dbl> <dbl>
##  1 Afghanistan     42    42
##  2 Albania         79    73
##  3 Algeria         72    70
##  4 Angola          43    39
##  5 Argentina       78    71
##  6 Armenia         75    68
##  7 Aruba           76    70
##  8 Australia       83    78
##  9 Austria         82    76
## 10 Azerbaijan      70    63
## # ... with 185 more rows
…
